{
  "name": "asusctl-gex",
  "description": "This extension allows you to visualize most of the asusd settings and status",
  "uuid": "asusctl-gex@asus-linux.org",
  "version": "4.0.2",
  "shell-version": [
    "3.36",
    "3.38",
    "40.0",
    "41.0",
    "42.0"
  ]
}
